AZ Trends in AGB
…
tar_load(c(slope_liu_agb, slope_chopping_agb, slope_xu_agb), store = here("_targets"))

df <- 
  map(c("Liu et al." = slope_liu_agb,
        "Chopping et al." = slope_chopping_agb,
        "Xu et al." = slope_xu_agb), 
      \(x) as_tibble(x, na.rm = TRUE) |> select(-p.value)) |> 
  list_rbind(names_to = "product")
df

# A tibble: 4,733,850 × 2
   product      slope
   <chr>        <dbl>
 1 Liu et al. -0.0340
 2 Liu et al. -0.0453
 3 Liu et al. -0.0465
 4 Liu et al. -0.0335
 5 Liu et al. -0.0256
 6 Liu et al. -0.0231
 7 Liu et al. -0.0180
 8 Liu et al. -0.0129
 9 Liu et al. -0.0217
10 Liu et al. -0.0223
# ℹ 4,733,840 more rows
…
